Semester_3/DSDL/lab9/q2_tb.vcd
$date
	Thu Oct 27 10:21:56 2022
$end
$version
	Icarus Verilog
$end
$timescale
	1ns
$end
$scope module q2_tb $end
$var wire 1 ! H $end
$var wire 1 " G $end
$var wire 1 # F $end
$var reg 1 $ En $end
$var reg 4 % W [3:0] $end
$scope module q2 $end
$var wire 1 $ En $end
$var wire 1 # F $end
$var wire 1 " G $end
$var wire 1 ! H $end
$var wire 4 & W [3:0] $end
$var wire 16 ' f [0:15] $end
$scope module stage0 $end
$var wire 1 $ En $end
$var wire 4 ( W [3:0] $end
$var wire 4 ) en [0:3] $end
$var wire 16 * Y [0:15] $end
$scope module stage0 $end
$var wire 1 $ En $end
$var wire 2 + W [1:0] $end
$var reg 4 , Y [0:3] $end
$upscope $end
$scope module stage1 $end
$var wire 1 - En $end
$var wire 2 . W [1:0] $end
$var reg 4 / Y [0:3] $end
$upscope $end
$scope module stage2 $end
$var wire 1 0 En $end
$var wire 2 1 W [1:0] $end
$var reg 4 2 Y [0:3] $end
$upscope $end
$scope module stage3 $end
$var wire 1 3 En $end
$var wire 2 4 W [1:0] $end
$var reg 4 5 Y [0:3] $end
$upscope $end
$scope module stage4 $end
$var wire 1 6 En $end
$var wire 2 7 W [1:0] $end
$var reg 4 8 Y [0:3] $end
$upscope $end
$upscope $end
$upscope $end
$upscope $end
$enddefinitions $end
#0
$dumpvars
b0 8
b0 7
06
b0 5
b0 4
03
b0 2
b0 1
00
b1000 /
b0 .
1-
b1000 ,
b0 +
b1000000000000000 *
b1000 )
b0 (
b1000000000000000 '
b0 &
b0 %
1$
0#
0"
1!
$end
#10
b100000000000000 '
b100000000000000 *
b100 /
b1 .
b1 1
b1 4
b1 7
b1 %
b1 &
b1 (
#20
0!
1"
b10000000000000 '
b10000000000000 *
b10 /
b10 .
b10 1
b10 4
b10 7
b10 %
b10 &
b10 (
#30
1#
1!
b1000000000000 '
b1000000000000 *
b1 /
b11 .
b11 1
b11 4
b11 7
b11 %
b11 &
b11 (
#40
0!
0#
0"
b1000 2
10
0-
b100 )
b100 ,
b100000000000 '
b100000000000 *
b0 /
b1 +
b0 .
b0 1
b0 4
b0 7
b100 %
b100 &
b100 (
#50
b10000000000 '
b10000000000 *
b100 2
b1 .
b1 1
b1 4
b1 7
b101 %
b101 &
b101 (
#60
1#
b1000000000 '
b1000000000 *
b10 2
b10 .
b10 1
b10 4
b10 7
b110 %
b110 &
b110 (
#70
1!
b100000000 '
b100000000 *
b1 2
b11 .
b11 1
b11 4
b11 7
b111 %
b111 &
b111 (
#80
0#
0!
b1000 5
13
00
b10 )
b10 ,
b10000000 '
b10000000 *
b0 2
b10 +
b0 .
b0 1
b0 4
b0 7
b1000 %
b1000 &
b1000 (
#90
b1000000 '
b1000000 *
b100 5
b1 .
b1 1
b1 4
b1 7
b1001 %
b1001 &
b1001 (
#100
1#
1"
b100000 '
b100000 *
b10 5
b10 .
b10 1
b10 4
b10 7
b1010 %
b1010 &
b1010 (
#110
0"
b10000 '
b10000 *
b1 5
b11 .
b11 1
b11 4
b11 7
b1011 %
b1011 &
b1011 (
#120
0#
b1000 8
16
03
b1 )
b1 ,
b1000 '
b1000 *
b0 5
b11 +
b0 .
b0 1
b0 4
b0 7
b1100 %
b1100 &
b1100 (
#130
b100 '
b100 *
b100 8
b1 .
b1 1
b1 4
b1 7
b1101 %
b1101 &
b1101 (
#140
1!
1"
1#
b10 '
b10 *
b10 8
b10 .
b10 1
b10 4
b10 7
b1110 %
b1110 &
b1110 (
#150
0"
0#
b1 '
b1 *
b1 8
b11 .
b11 1
b11 4
b11 7
b1111 %
b1111 &
b1111 (
